[
    {
        "Id": "vid1",
        "Title": "15 Min. Full Body Stretch | Daily Routine for Flexibility, Mobility & Relaxation",
        "Link": "https://www.youtube.com/embed/g_tea8ZNk5A"
    },
    {
        "Id": "vid2",
        "Title": "30 MIN CARDIO PILATES || At-Home Full Body Workout",
        "Link": "https://www.youtube.com/embed/UsyPDZptw8E&t=130s"
    },
    {
        "Id": "vid3",
        "Title": "15 MIN FULL BODY HIIT WORKOUT - burn lots of calories",
        "Link": "https://www.youtube.com/embed/1skBf6h2ksI"
    },
    {
        "Id": "vid4",
        "Title": "15 MIN FULL BODY WORKOUT / Beginner Friendly",
        "Link": "https://www.youtube.com/embed/F8v9SA4Ptu4"
    },
    {
        "Id": "vid5",
        "Title": "FULL BODY PILATES FUSION (NO SQUATS, NO LUNGES)",
        "Link": "https://www.youtube.com/embed/wPe8pvtct04"
    },
    {
        "Id": "vid6",
        "Title": "NO JUMPING - Full Body FAT BURN WORKOUT",
        "Link": "https://www.youtube.com/embed/xyNxjx60Y7o"
    },
    {
        "Id": "vid7",
        "Title": "Yoga PE - Mind | Yoga With Adriene",
        "Link": "https://www.youtube.com/embed/ZK2XBduF84I"
    },
    {
        "Id": "vid8",
        "Title": "15 Min. Full Body Stretch | Daily Routine for Flexibility, Mobility & Relaxation",
        "Link": "https://www.youtube.com/embed/g_tea8ZNk5A"
    },{
        "Id": "vid9",
        "Title": "Full Body Workout für Beginner | No Equipment | mit Warm Up & Cool Down | DAY 1",
        "Link": "https://www.youtube.com/embed/IMctZ4i2FRw"
    },
    {
        "Id": "vid10",
        "Title": "The Most Fun 15 Minute Cardio Dance Fitness Workout EVER",
        "Link": "https://www.youtube.com/embed/yN3GgCUmmXw"
    },
    {
        "Id": "vid11",
        "Title": "15 MIN DANCE PARTY WORKOUT - Full Body/No Equipment",
        "Link": "https://www.youtube.com/embed/1vRto-2MMZo"
    },
    {
        "Id": "vid12",
        "Title": "15 MIN TIKTOK DANCE PARTY WORKOUT - Full Body/No Equipment",
        "Link": "https://www.youtube.com/embed/SoRmqE7A_IE"
    },
    {
        "Id": "vid13",
        "Title": "30-Minute Cardio Latin Dance Workout",
        "Link": "https://www.youtube.com/embed/8DZktowZo_k"
    },
    {
        "Id": "vid14",
        "Title": "Yuk Lakukan Senam Aerobik Hanya 15 Menit Untuk Membakar Lemak Tubuh !",
        "Link": "https://www.youtube.com/embed/y5OabVgga0E"
    },
    {
        "Id": "vid15",
        "Title": "Cardio Dance Membakar Lemak FEAT. Cantika & Wilona",
        "Link": "https://www.youtube.com/embed/5Ldq-mqmDW8"
    },
    {
        "Id": "vid16",
        "Title": "Get Abs in 2 WEEKS | Abs Workout Challenge",
        "Link": "https://www.youtube.com/embed/2pLT-olgUJs"
    },
    {
        "Id": "vid17",
        "Title": "LOSE FAT in 7 days (belly, waist & abs) | 5 minute Home Workout",
        "Link": "https://www.youtube.com/embed/ohgLmY19jNg"
    },
    {
        "Id": "vid18",
        "Title": "15 Minute Arm Workout to Some of My Very Favorite Songs | Madonna | Jonas Brothers | HAIM | Usher",
        "Link": "https://www.youtube.com/embed/xFqCCxJntH0"
    },
    {
        "Id": "vid19",
        "Title": "Non-Stop Cardio HIIT Dance | Try Not to Smile and Sweat | The Studio by Jamie Kinkeade",
        "Link": "https://www.youtube.com/embed/ub-luktrn6s"
    },
    {
        "Id": "vid20",
        "Title": "Survivor by Destiny’s Child Arm Workout",
        "Link": "https://www.youtube.com/embed/6YHz_pd-HLw"
    }
]